TriggerSummaryStep1                     0   0     DEBUG  +++ HLT_e5_etcut ID#607406625
TriggerSummaryStep1                     0   0     DEBUG  +++ HLT_e3_etcut1step ID#1509456583
TriggerSummaryStep1                     0   0     DEBUG  +++ HLT_e7_etcut ID#2430733989
TriggerSummaryStep1                     0   0     DEBUG  +++ HLT_e3_etcut ID#2711808158
TriggerSummaryStep2                     0   0     DEBUG  +++ HLT_e5_etcut ID#607406625
TriggerSummaryStep2                     0   0     DEBUG  +++ HLT_e7_etcut ID#2430733989
TriggerSummaryStep2                     0   0     DEBUG  +++ HLT_e3_etcut ID#2711808158
TriggerSummaryStep1                     1   0     DEBUG  +++ HLT_e5_etcut ID#607406625
TriggerSummaryStep1                     1   0     DEBUG  +++ HLT_e3_etcut1step ID#1509456583
TriggerSummaryStep1                     1   0     DEBUG  +++ HLT_e7_etcut ID#2430733989
TriggerSummaryStep1                     1   0     DEBUG  +++ HLT_e3_etcut ID#2711808158
TriggerSummaryStep2                     1   0     DEBUG  +++ HLT_e5_etcut ID#607406625
TriggerSummaryStep2                     1   0     DEBUG  +++ HLT_e7_etcut ID#2430733989
TriggerSummaryStep2                     1   0     DEBUG  +++ HLT_e3_etcut ID#2711808158
TriggerSummaryStep1                     2   0     DEBUG  +++ HLT_e5_etcut ID#607406625
TriggerSummaryStep1                     2   0     DEBUG  +++ HLT_e3_etcut1step ID#1509456583
TriggerSummaryStep1                     2   0     DEBUG  +++ HLT_e7_etcut ID#2430733989
TriggerSummaryStep1                     2   0     DEBUG  +++ HLT_e3_etcut ID#2711808158
TriggerSummaryStep2                     2   0     DEBUG  +++ HLT_e5_etcut ID#607406625
TriggerSummaryStep2                     2   0     DEBUG  +++ HLT_e7_etcut ID#2430733989
TriggerSummaryStep2                     2   0     DEBUG  +++ HLT_e3_etcut ID#2711808158
TriggerSummaryStep1                     3   0     DEBUG  +++ HLT_e5_etcut ID#607406625
TriggerSummaryStep1                     3   0     DEBUG  +++ HLT_e3_etcut1step ID#1509456583
TriggerSummaryStep1                     3   0     DEBUG  +++ HLT_e7_etcut ID#2430733989
TriggerSummaryStep1                     3   0     DEBUG  +++ HLT_e3_etcut ID#2711808158
TriggerSummaryStep2                     3   0     DEBUG  +++ HLT_e5_etcut ID#607406625
TriggerSummaryStep2                     3   0     DEBUG  +++ HLT_e7_etcut ID#2430733989
TriggerSummaryStep2                     3   0     DEBUG  +++ HLT_e3_etcut ID#2711808158
TriggerSummaryStep1                     4   0     DEBUG  +++ HLT_e5_etcut ID#607406625
TriggerSummaryStep1                     4   0     DEBUG  +++ HLT_e3_etcut1step ID#1509456583
TriggerSummaryStep1                     4   0     DEBUG  +++ HLT_e7_etcut ID#2430733989
TriggerSummaryStep1                     4   0     DEBUG  +++ HLT_e3_etcut ID#2711808158
TriggerSummaryStep2                     4   0     DEBUG  +++ HLT_e5_etcut ID#607406625
TriggerSummaryStep2                     4   0     DEBUG  +++ HLT_e7_etcut ID#2430733989
TriggerSummaryStep2                     4   0     DEBUG  +++ HLT_e3_etcut ID#2711808158
TriggerSummaryStep1                     5   0     DEBUG  +++ HLT_mu6Comb ID#393364983
TriggerSummaryStep1                     5   0     DEBUG  +++ HLT_e5_etcut ID#607406625
TriggerSummaryStep1                     5   0     DEBUG  +++ HLT_e3_etcut1step ID#1509456583
TriggerSummaryStep1                     5   0     DEBUG  +++ HLT_mu6 ID#1672162766
TriggerSummaryStep1                     5   0     DEBUG  +++ HLT_e7_etcut ID#2430733989
TriggerSummaryStep1                     5   0     DEBUG  +++ HLT_e3_etcut ID#2711808158
TriggerSummaryStep1                     5   0     DEBUG  +++ HLT_e3_etcut_mu6 ID#3189262314
TriggerSummaryStep2                     5   0     DEBUG  +++ HLT_mu6Comb ID#393364983
TriggerSummaryStep2                     5   0     DEBUG  +++ HLT_e5_etcut ID#607406625
TriggerSummaryStep2                     5   0     DEBUG  +++ HLT_e7_etcut ID#2430733989
TriggerSummaryStep2                     5   0     DEBUG  +++ HLT_e3_etcut ID#2711808158
TriggerSummaryStep1                     6   0     DEBUG  +++ HLT_mu6Comb ID#393364983
TriggerSummaryStep1                     6   0     DEBUG  +++ HLT_e5_etcut ID#607406625
TriggerSummaryStep1                     6   0     DEBUG  +++ HLT_e3_etcut1step ID#1509456583
TriggerSummaryStep1                     6   0     DEBUG  +++ HLT_mu6 ID#1672162766
TriggerSummaryStep1                     6   0     DEBUG  +++ HLT_e7_etcut ID#2430733989
TriggerSummaryStep1                     6   0     DEBUG  +++ HLT_e3_etcut ID#2711808158
TriggerSummaryStep2                     6   0     DEBUG  +++ HLT_mu6Comb ID#393364983
TriggerSummaryStep2                     6   0     DEBUG  +++ HLT_e5_etcut ID#607406625
TriggerSummaryStep2                     6   0     DEBUG  +++ HLT_e7_etcut ID#2430733989
TriggerSummaryStep2                     6   0     DEBUG  +++ HLT_e3_etcut ID#2711808158
TriggerSummaryStep1                     7   0     DEBUG  +++ HLT_e5_etcut ID#607406625
TriggerSummaryStep1                     7   0     DEBUG  +++ HLT_e3_etcut1step ID#1509456583
TriggerSummaryStep1                     7   0     DEBUG  +++ HLT_e7_etcut ID#2430733989
TriggerSummaryStep1                     7   0     DEBUG  +++ HLT_e3_etcut ID#2711808158
TriggerSummaryStep2                     7   0     DEBUG  +++ HLT_e5_etcut ID#607406625
TriggerSummaryStep2                     7   0     DEBUG  +++ HLT_e7_etcut ID#2430733989
TriggerSummaryStep2                     7   0     DEBUG  +++ HLT_e3_etcut ID#2711808158
TriggerSummaryStep1                     8   0     DEBUG  +++ HLT_e5_etcut ID#607406625
TriggerSummaryStep1                     8   0     DEBUG  +++ HLT_e3_etcut1step ID#1509456583
TriggerSummaryStep1                     8   0     DEBUG  +++ HLT_e7_etcut ID#2430733989
TriggerSummaryStep1                     8   0     DEBUG  +++ HLT_e3_etcut ID#2711808158
TriggerSummaryStep2                     8   0     DEBUG  +++ HLT_e5_etcut ID#607406625
TriggerSummaryStep2                     8   0     DEBUG  +++ HLT_e7_etcut ID#2430733989
TriggerSummaryStep2                     8   0     DEBUG  +++ HLT_e3_etcut ID#2711808158
TriggerSummaryStep1                     10  0     DEBUG  +++ HLT_e5_etcut ID#607406625
TriggerSummaryStep1                     10  0     DEBUG  +++ HLT_e3_etcut1step ID#1509456583
TriggerSummaryStep1                     10  0     DEBUG  +++ HLT_e7_etcut ID#2430733989
TriggerSummaryStep1                     10  0     DEBUG  +++ HLT_e3_etcut ID#2711808158
TriggerSummaryStep2                     10  0     DEBUG  +++ HLT_e5_etcut ID#607406625
TriggerSummaryStep2                     10  0     DEBUG  +++ HLT_e7_etcut ID#2430733989
TriggerSummaryStep2                     10  0     DEBUG  +++ HLT_e3_etcut ID#2711808158
TriggerSummaryStep1                     11  0     DEBUG  +++ HLT_e5_etcut ID#607406625
TriggerSummaryStep1                     11  0     DEBUG  +++ HLT_e3_etcut1step ID#1509456583
TriggerSummaryStep1                     11  0     DEBUG  +++ HLT_e3_etcut ID#2711808158
TriggerSummaryStep2                     11  0     DEBUG  +++ HLT_e5_etcut ID#607406625
TriggerSummaryStep2                     11  0     DEBUG  +++ HLT_e3_etcut ID#2711808158
TriggerSummaryStep1                     12  0     DEBUG  +++ HLT_e5_etcut ID#607406625
TriggerSummaryStep1                     12  0     DEBUG  +++ HLT_e3_etcut1step ID#1509456583
TriggerSummaryStep1                     12  0     DEBUG  +++ HLT_e7_etcut ID#2430733989
TriggerSummaryStep1                     12  0     DEBUG  +++ HLT_e3_etcut ID#2711808158
TriggerSummaryStep2                     12  0     DEBUG  +++ HLT_e5_etcut ID#607406625
TriggerSummaryStep2                     12  0     DEBUG  +++ HLT_e7_etcut ID#2430733989
TriggerSummaryStep2                     12  0     DEBUG  +++ HLT_e3_etcut ID#2711808158
TriggerSummaryStep1                     13  0     DEBUG  +++ HLT_e5_etcut ID#607406625
TriggerSummaryStep1                     13  0     DEBUG  +++ HLT_e3_etcut1step ID#1509456583
TriggerSummaryStep1                     13  0     DEBUG  +++ HLT_e7_etcut ID#2430733989
TriggerSummaryStep1                     13  0     DEBUG  +++ HLT_e3_etcut ID#2711808158
TriggerSummaryStep2                     13  0     DEBUG  +++ HLT_e5_etcut ID#607406625
TriggerSummaryStep2                     13  0     DEBUG  +++ HLT_e7_etcut ID#2430733989
TriggerSummaryStep2                     13  0     DEBUG  +++ HLT_e3_etcut ID#2711808158
TriggerSummaryStep1                     14  0     DEBUG  +++ HLT_e5_etcut ID#607406625
TriggerSummaryStep1                     14  0     DEBUG  +++ HLT_e3_etcut1step ID#1509456583
TriggerSummaryStep1                     14  0     DEBUG  +++ HLT_e3_etcut ID#2711808158
TriggerSummaryStep2                     14  0     DEBUG  +++ HLT_e5_etcut ID#607406625
TriggerSummaryStep2                     14  0     DEBUG  +++ HLT_e3_etcut ID#2711808158
TriggerSummaryStep1                     15  0     DEBUG  +++ HLT_mu6Comb ID#393364983
TriggerSummaryStep1                     15  0     DEBUG  +++ HLT_mu6 ID#1672162766
TriggerSummaryStep1                     16  0     DEBUG  +++ HLT_e3_etcut1step ID#1509456583
TriggerSummaryStep1                     16  0     DEBUG  +++ HLT_e3_etcut ID#2711808158
TriggerSummaryStep2                     16  0     DEBUG  +++ HLT_e3_etcut ID#2711808158
TriggerSummaryStep1                     17  0     DEBUG  +++ HLT_e5_etcut ID#607406625
TriggerSummaryStep1                     17  0     DEBUG  +++ HLT_e3_etcut1step ID#1509456583
TriggerSummaryStep1                     17  0     DEBUG  +++ HLT_e7_etcut ID#2430733989
TriggerSummaryStep1                     17  0     DEBUG  +++ HLT_e3_etcut ID#2711808158
TriggerSummaryStep2                     17  0     DEBUG  +++ HLT_e5_etcut ID#607406625
TriggerSummaryStep2                     17  0     DEBUG  +++ HLT_e7_etcut ID#2430733989
TriggerSummaryStep2                     17  0     DEBUG  +++ HLT_e3_etcut ID#2711808158
TriggerSummaryStep1                     18  0     DEBUG  +++ HLT_e5_etcut ID#607406625
TriggerSummaryStep1                     18  0     DEBUG  +++ HLT_e3_etcut1step ID#1509456583
TriggerSummaryStep1                     18  0     DEBUG  +++ HLT_e7_etcut ID#2430733989
TriggerSummaryStep1                     18  0     DEBUG  +++ HLT_e3_etcut ID#2711808158
TriggerSummaryStep1                     19  0     DEBUG  +++ HLT_e5_etcut ID#607406625
TriggerSummaryStep1                     19  0     DEBUG  +++ HLT_e3_etcut1step ID#1509456583
TriggerSummaryStep1                     19  0     DEBUG  +++ HLT_e7_etcut ID#2430733989
TriggerSummaryStep1                     19  0     DEBUG  +++ HLT_e3_etcut ID#2711808158
TriggerSummaryStep2                     19  0     DEBUG  +++ HLT_e5_etcut ID#607406625
TriggerSummaryStep2                     19  0     DEBUG  +++ HLT_e7_etcut ID#2430733989
TriggerSummaryStep2                     19  0     DEBUG  +++ HLT_e3_etcut ID#2711808158
TrigSignatureMoniMT                                INFO HLT_2mu6                      20        20        0         0         0         
TrigSignatureMoniMT                                INFO HLT_2mu6 decisions                                0         0         
TrigSignatureMoniMT                                INFO HLT_2mu6Comb                  20        20        0         0         0         
TrigSignatureMoniMT                                INFO HLT_2mu6Comb decisions                            0         0         
TrigSignatureMoniMT                                INFO HLT_e3_etcut                  20        20        18        17        17        
TrigSignatureMoniMT                                INFO HLT_e3_etcut decisions                            54        262       
TrigSignatureMoniMT                                INFO HLT_e3_etcut1step             20        20        18        0         18        
TrigSignatureMoniMT                                INFO HLT_e3_etcut1step decisions                       54        0         
TrigSignatureMoniMT                                INFO HLT_e3_etcut_mu6              20        20        10        0         1         
TrigSignatureMoniMT                                INFO HLT_e3_etcut_mu6 decisions                        17        0         
TrigSignatureMoniMT                                INFO HLT_e5_etcut                  20        20        17        16        16        
TrigSignatureMoniMT                                INFO HLT_e5_etcut decisions                            50        251       
TrigSignatureMoniMT                                INFO HLT_e7_etcut                  20        20        15        14        14        
TrigSignatureMoniMT                                INFO HLT_e7_etcut decisions                            36        205       
TrigSignatureMoniMT                                INFO HLT_mu6                       20        20        3         0         3         
TrigSignatureMoniMT                                INFO HLT_mu6 decisions                                 3         0         
TrigSignatureMoniMT                                INFO HLT_mu6Comb                   20        20        3         2         2         
TrigSignatureMoniMT                                INFO HLT_mu6Comb decisions                             3         2         
